^C:\Users\Diego\Desktop\KINECT\TCC\TCC.BulkProcessing\TCC.BulkProcessing.vcxproj
C:\Users\Diego\Desktop\KINECT\TCC\TCC\bin\x86\Release\TCC.BulkProcessing.lib
C:\Users\Diego\Desktop\KINECT\TCC\TCC\bin\x86\Release\TCC.BulkProcessing.lib
C:\Users\Diego\Desktop\KINECT\TCC\TCC\bin\x86\Release\TCC.BulkProcessing.exp
C:\Users\Diego\Desktop\KINECT\TCC\TCC\bin\x86\Release\TCC.BulkProcessing.exp
