^C:\USERS\DIEGO\DESKTOP\KINECT\TCC\TCC.BULKPROCESSING\STDAFX.CPP
/c /ZI /nologo /W3 /WX- /sdl /Od /Oy- /D WIN32 /D _DEBUG /D _WINDOWS /D _USRDLL /D TCCBULKPROCESSING_EXPORTS /D _WINDLL /D _UNICODE /D UNICODE /Gm /EHsc /RTC1 /MDd /GS /fp:precise /Zc:wchar_t /Zc:forScope /Yc"stdafx.h" /Fp"DEBUG\TCC.BULKPROCESSING.PCH" /Fo"DEBUG\\" /Fd"DEBUG\VC110.PDB" /Gd /TP /analyze- C:\USERS\DIEGO\DESKTOP\KINECT\TCC\TCC.BULKPROCESSING\STDAFX.CPP
^C:\USERS\DIEGO\DESKTOP\KINECT\TCC\TCC.BULKPROCESSING\DLLMAIN.CPP
/c /ZI /nologo /W3 /WX- /sdl /Od /Oy- /D WIN32 /D _DEBUG /D _WINDOWS /D _USRDLL /D TCCBULKPROCESSING_EXPORTS /D _WINDLL /D _UNICODE /D UNICODE /Gm /EHsc /RTC1 /MDd /GS /fp:precise /Zc:wchar_t /Zc:forScope /Fo"DEBUG\\" /Fd"DEBUG\VC110.PDB" /Gd /TP /analyze- C:\USERS\DIEGO\DESKTOP\KINECT\TCC\TCC.BULKPROCESSING\DLLMAIN.CPP
^C:\USERS\DIEGO\DESKTOP\KINECT\TCC\TCC.BULKPROCESSING\TCC.BULKPROCESSING.CPP
/c /ZI /nologo /W3 /WX- /sdl /Od /Oy- /D WIN32 /D _DEBUG /D _WINDOWS /D _USRDLL /D TCCBULKPROCESSING_EXPORTS /D _WINDLL /D _UNICODE /D UNICODE /Gm /EHsc /RTC1 /MDd /GS /fp:precise /Zc:wchar_t /Zc:forScope /Yu"stdafx.h" /Fp"DEBUG\TCC.BULKPROCESSING.PCH" /Fo"DEBUG\\" /Fd"DEBUG\VC110.PDB" /Gd /TP /analyze- C:\USERS\DIEGO\DESKTOP\KINECT\TCC\TCC.BULKPROCESSING\TCC.BULKPROCESSING.CPP
^C:\USERS\DIEGO\DESKTOP\KINECT\TCC\TCC.BULKPROCESSING\TCC.DOUGLASPEUCKER.CPP
/c /ZI /nologo /W3 /WX- /sdl /Od /Oy- /D WIN32 /D _DEBUG /D _WINDOWS /D _USRDLL /D TCCBULKPROCESSING_EXPORTS /D _WINDLL /D _UNICODE /D UNICODE /Gm /EHsc /RTC1 /MDd /GS /fp:precise /Zc:wchar_t /Zc:forScope /Yu"stdafx.h" /Fp"DEBUG\TCC.BULKPROCESSING.PCH" /Fo"DEBUG\\" /Fd"DEBUG\VC110.PDB" /Gd /TP /analyze- C:\USERS\DIEGO\DESKTOP\KINECT\TCC\TCC.BULKPROCESSING\TCC.DOUGLASPEUCKER.CPP
